<?xml version="1.0" encoding="UTF-8"?>
<!-- Generator: Adobe Illustrator 24.1.3, SVG Export Plug-In . SVG Version: 6.00 Build 0)  -->
<svg xmlns="http://www.w3.org/2000/svg" xmlns:xlink="http://www.w3.org/1999/xlink" version="1.1" id="Layer_1" x="0px" y="0px" viewBox="0 0 164.4 51" style="enable-background:new 0 0 164.4 51;" xml:space="preserve">
<style type="text/css">
	.st0{fill:#FFFFFF;}
</style>
<g>
	<g>
		<polygon class="st0" points="53.4,17.7 61.7,17.7 61.7,16.9 61.7,11.6 61.7,11.6 50,11.6 47.1,14.2 52,18.9   "></polygon>
		<path class="st0" d="M36,36.1V14.9l16.2,15.3l0.7-0.6c1.1-1.1,1.8-2.5,1.8-4c0-2.6-2.3-4.6-3.5-5.6l-8.8-8.3h-6.4l0,0h-6.2v11.1    H18.5V11.6h-6.2v27.9h6.2V28h11.3v11.5H36l0,0h-3.6l0,0h9.9l3-2.8L40.4,32L36,36.1z"></path>
		<path class="st0" d="M53.5,33.4L40.2,20.8l-0.7,0.6c-1.1,1.1-1.8,2.5-1.8,4c0,2.5,2.4,4.6,3.6,5.7l8.8,8.3h9.9h1.8v0v-5.3v-0.8    L53.5,33.4L53.5,33.4z"></path>
	</g>
	<path class="st0" d="M75.4,23l-0.8-2.6h-4L69.9,23h-2.5l3.8-10.9H74L77.9,23H75.4z M74.1,18.5c-0.7-2.3-1.1-3.7-1.2-4   c-0.1-0.3-0.2-0.6-0.2-0.7c-0.2,0.6-0.6,2.2-1.4,4.7C71.2,18.5,74.1,18.5,74.1,18.5z"></path>
	<path class="st0" d="M85,23l-0.3-1.1h-0.1c-0.2,0.4-0.6,0.7-1,0.9c-0.4,0.2-0.9,0.3-1.5,0.3c-1,0-1.7-0.3-2.2-0.8S79,21.1,79,20.1   v-5.4h2.3v4.8c0,0.6,0.1,1,0.3,1.4c0.2,0.3,0.6,0.5,1,0.5c0.6,0,1.1-0.2,1.4-0.6c0.3-0.4,0.4-1.1,0.4-2.1v-3.9h2.3V23H85z"></path>
	<path class="st0" d="M103.2,18.8c0,1.4-0.4,2.4-1.1,3.2s-1.7,1.1-3,1.1c-0.8,0-1.5-0.2-2.1-0.5s-1.1-0.9-1.4-1.5   c-0.3-0.6-0.5-1.4-0.5-2.3c0-1.4,0.3-2.4,1.1-3.2c0.7-0.8,1.7-1.1,3-1.1c0.8,0,1.5,0.2,2.1,0.5c0.6,0.4,1.1,0.8,1.4,1.5   C103.1,17.2,103.2,18,103.2,18.8z M97.5,18.8c0,0.8,0.1,1.4,0.4,1.9c0.3,0.4,0.7,0.6,1.3,0.6c0.6,0,1-0.2,1.3-0.6   c0.3-0.4,0.4-1,0.4-1.9c0-0.8-0.1-1.4-0.4-1.9c-0.3-0.4-0.7-0.6-1.3-0.6s-1,0.2-1.3,0.6C97.6,17.4,97.5,18,97.5,18.8z"></path>
	<path class="st0" d="M112.5,23h-2.3v-4.9c0-0.6-0.1-1-0.3-1.4c-0.2-0.3-0.5-0.4-0.9-0.4c-0.6,0-1,0.2-1.3,0.6s-0.4,1.1-0.4,2.1V23   h-2.3v-8.3h1.7l0.3,1.1h0.1c0.2-0.4,0.5-0.7,1-0.9s0.9-0.3,1.4-0.3c1.2,0,2.1,0.4,2.5,1.2h0.2c0.2-0.4,0.6-0.7,1-0.9   s0.9-0.3,1.5-0.3c0.9,0,1.7,0.2,2.1,0.7c0.5,0.5,0.7,1.3,0.7,2.3V23h-2.3v-4.9c0-0.6-0.1-1-0.3-1.4s-0.5-0.4-0.9-0.4   c-0.6,0-1,0.2-1.2,0.6c-0.3,0.4-0.4,1-0.4,1.9C112.5,18.8,112.5,23,112.5,23z"></path>
	<path class="st0" d="M125.3,23l-0.4-1.1h-0.1c-0.4,0.5-0.8,0.8-1.2,1c-0.4,0.2-0.9,0.3-1.6,0.3c-0.8,0-1.4-0.2-1.9-0.7   c-0.5-0.5-0.7-1.1-0.7-2c0-0.9,0.3-1.5,0.9-2c0.6-0.4,1.6-0.6,2.8-0.7l1.4,0v-0.4c0-0.8-0.4-1.3-1.3-1.3c-0.7,0-1.4,0.2-2.3,0.6   l-0.8-1.5c0.9-0.5,2-0.8,3.2-0.8c1.1,0,2,0.2,2.6,0.7c0.6,0.5,0.9,1.2,0.9,2.2V23L125.3,23L125.3,23z M124.6,19.1l-0.9,0   c-0.7,0-1.2,0.1-1.5,0.4c-0.3,0.2-0.5,0.5-0.5,1c0,0.6,0.4,1,1.1,1c0.5,0,0.9-0.1,1.3-0.5c0.3-0.3,0.5-0.7,0.5-1.2V19.1z"></path>
	<path class="st0" d="M139.6,23.1c-1.3,0-2.4-0.4-3.1-1.1s-1.1-1.8-1.1-3.1c0-1.4,0.4-2.5,1-3.2c0.7-0.8,1.7-1.1,2.9-1.1   c1.2,0,2.1,0.3,2.7,1c0.6,0.7,1,1.6,1,2.8v1.1h-5.4c0,0.6,0.2,1.1,0.6,1.5s0.9,0.5,1.5,0.5c0.5,0,1,0,1.4-0.2   c0.4-0.1,0.9-0.3,1.4-0.5v1.8c-0.4,0.2-0.8,0.3-1.3,0.4C140.8,23.1,140.2,23.1,139.6,23.1z M139.2,16.1c-0.5,0-0.9,0.1-1.1,0.5   c-0.3,0.3-0.4,0.7-0.5,1.3h3.2c0-0.6-0.2-1-0.4-1.3C140.1,16.3,139.7,16.1,139.2,16.1z"></path>
	<path class="st0" d="M147.4,23.1c-1,0-1.7-0.4-2.3-1.1s-0.8-1.8-0.8-3.1c0-1.4,0.3-2.4,0.9-3.2c0.6-0.8,1.4-1.1,2.3-1.1   c1,0,1.8,0.4,2.4,1.2h0.1c-0.1-0.6-0.2-1.2-0.2-1.7v-2.7h2.3V23h-1.7l-0.4-1.1h-0.1C149.3,22.7,148.5,23.1,147.4,23.1z M148.2,21.3   c0.6,0,1-0.2,1.3-0.5s0.4-0.9,0.4-1.7v-0.2c0-0.9-0.1-1.5-0.4-1.9s-0.7-0.6-1.3-0.6c-0.5,0-0.9,0.2-1.2,0.6s-0.4,1-0.4,1.9   c0,0.8,0.1,1.4,0.4,1.8C147.3,21.1,147.7,21.3,148.2,21.3z"></path>
	<path class="st0" d="M75.2,36.2c0,1-0.3,1.8-1.1,2.3c-0.7,0.6-1.7,0.8-2.9,0.8c-1.2,0-2.2-0.2-3.1-0.7v-2.1   c0.7,0.3,1.3,0.6,1.9,0.7c0.5,0.1,1,0.2,1.4,0.2c0.5,0,0.9-0.1,1.2-0.3c0.3-0.2,0.4-0.5,0.4-0.9c0-0.2-0.1-0.4-0.2-0.6   s-0.3-0.3-0.5-0.5c-0.2-0.2-0.7-0.4-1.4-0.7c-0.7-0.3-1.2-0.6-1.5-0.9c-0.3-0.3-0.6-0.6-0.8-1c-0.2-0.4-0.3-0.8-0.3-1.3   c0-1,0.3-1.7,1-2.3c0.7-0.5,1.6-0.8,2.7-0.8c0.6,0,1.1,0.1,1.6,0.2c0.5,0.1,1.1,0.3,1.6,0.6l-0.7,1.8c-0.6-0.2-1.1-0.4-1.4-0.5   c-0.4-0.1-0.8-0.1-1.1-0.1c-0.4,0-0.8,0.1-1,0.3c-0.2,0.2-0.3,0.5-0.3,0.8c0,0.2,0.1,0.4,0.1,0.5c0.1,0.1,0.2,0.3,0.4,0.4   s0.7,0.4,1.5,0.8c1,0.5,1.7,1,2.1,1.5C75,34.9,75.2,35.5,75.2,36.2z"></path>
	<path class="st0" d="M84.5,35.1c0,1.3-0.4,2.4-1.1,3.2s-1.7,1.1-3,1.1c-0.8,0-1.5-0.2-2.1-0.5c-0.6-0.3-1.1-0.8-1.4-1.5   c-0.3-0.7-0.5-1.4-0.5-2.3c0-1.4,0.3-2.4,1.1-3.2s1.7-1.1,3-1.1c0.8,0,1.5,0.2,2.1,0.5s1.1,0.8,1.4,1.5   C84.3,33.5,84.5,34.2,84.5,35.1z M78.8,35.1c0,0.8,0.1,1.4,0.4,1.9c0.3,0.4,0.7,0.6,1.3,0.6c0.6,0,1-0.2,1.3-0.6   c0.3-0.4,0.4-1,0.4-1.9c0-0.8-0.1-1.4-0.4-1.8c-0.3-0.4-0.7-0.6-1.3-0.6s-1,0.2-1.3,0.6C78.9,33.6,78.8,34.3,78.8,35.1z"></path>
	<path class="st0" d="M96.9,39.3l-0.3-1.1h-0.1c-0.2,0.4-0.6,0.7-1,0.9c-0.4,0.2-0.9,0.3-1.5,0.3c-1,0-1.7-0.3-2.2-0.8   S91,37.4,91,36.4V31h2.3v4.8c0,0.6,0.1,1,0.3,1.3s0.6,0.5,1,0.5c0.6,0,1.1-0.2,1.4-0.6c0.3-0.4,0.4-1.1,0.4-2.1V31h2.3v8.3   L96.9,39.3L96.9,39.3z"></path>
	<path class="st0" d="M107.5,28.8c0-0.7,0.4-1.1,1.2-1.1s1.2,0.4,1.2,1.1c0,0.4-0.1,0.6-0.3,0.8c-0.2,0.2-0.5,0.3-0.9,0.3   C107.9,29.9,107.5,29.6,107.5,28.8z M109.9,39.3h-2.3V31h2.3V39.3z"></path>
	<path class="st0" d="M119.8,35.1c0,1.3-0.4,2.4-1.1,3.2s-1.7,1.1-3,1.1c-0.8,0-1.5-0.2-2.1-0.5c-0.6-0.3-1.1-0.8-1.4-1.5   c-0.3-0.7-0.5-1.4-0.5-2.3c0-1.4,0.3-2.4,1.1-3.2s1.7-1.1,3-1.1c0.8,0,1.5,0.2,2.1,0.5s1.1,0.8,1.4,1.5   C119.6,33.5,119.8,34.2,119.8,35.1z M114.1,35.1c0,0.8,0.1,1.4,0.4,1.9c0.3,0.4,0.7,0.6,1.3,0.6c0.6,0,1-0.2,1.3-0.6   c0.3-0.4,0.4-1,0.4-1.9c0-0.8-0.1-1.4-0.4-1.8c-0.3-0.4-0.7-0.6-1.3-0.6s-1,0.2-1.3,0.6C114.2,33.6,114.1,34.3,114.1,35.1z"></path>
	<path class="st0" d="M129.3,39.3h-2.3v-4.8c0-0.6-0.1-1-0.3-1.3s-0.6-0.5-1-0.5c-0.6,0-1.1,0.2-1.4,0.6c-0.3,0.4-0.4,1.1-0.4,2.1   v3.9h-2.3v-8.3h1.7l0.3,1.1h0.1c0.3-0.4,0.6-0.7,1-0.9s0.9-0.3,1.5-0.3c1,0,1.7,0.3,2.2,0.8c0.5,0.5,0.8,1.3,0.8,2.3L129.3,39.3   L129.3,39.3z"></path>
	<path class="st0" d="M137.5,36.8c0,0.8-0.3,1.5-0.9,1.9c-0.6,0.5-1.5,0.7-2.6,0.7c-0.6,0-1.1,0-1.5-0.1c-0.4-0.1-0.8-0.2-1.2-0.4   v-1.9c0.4,0.2,0.9,0.4,1.4,0.5c0.5,0.1,1,0.2,1.4,0.2c0.8,0,1.2-0.2,1.2-0.7c0-0.2-0.1-0.3-0.2-0.4s-0.3-0.2-0.6-0.4   c-0.3-0.1-0.6-0.3-1.1-0.5c-0.6-0.3-1.1-0.5-1.4-0.7c-0.3-0.2-0.5-0.5-0.6-0.8c-0.1-0.3-0.2-0.7-0.2-1.1c0-0.7,0.3-1.3,0.9-1.7   s1.4-0.6,2.4-0.6c1,0,2,0.2,2.9,0.6l-0.7,1.6c-0.4-0.2-0.8-0.3-1.2-0.4c-0.4-0.1-0.7-0.2-1.1-0.2c-0.7,0-1,0.2-1,0.5   c0,0.2,0.1,0.4,0.3,0.5c0.2,0.2,0.7,0.4,1.4,0.7c0.6,0.3,1.1,0.5,1.4,0.7c0.3,0.2,0.5,0.5,0.7,0.8C137.4,36,137.5,36.4,137.5,36.8z   "></path>
	<path class="st0" d="M92.6,21.3c-0.3,0-0.5-0.1-0.7-0.2s-0.3-0.4-0.3-0.7v-4h2.3v-1.7h-2.3v-1.8h-0.3l-3.1,3.2v0.3h1.1v4   c0,0.9,0.2,1.6,0.6,2.1s1.1,0.7,2,0.7c0.8,0,1.5-0.1,2.1-0.4v-1.7C93.4,21.2,93,21.3,92.6,21.3z"></path>
	<polygon class="st0" points="86.4,29.8 86.4,39.3 88.6,39.3 88.6,27.7 88.4,27.7  "></polygon>
	<path class="st0" d="M132.7,21.3c-0.3,0-0.5-0.1-0.7-0.2c-0.2-0.1-0.3-0.4-0.3-0.7v-4h2.3v-1.7h-2.3v-1.8h-0.3l-3.1,3.2v0.3h1.1v4   c0,0.9,0.2,1.6,0.6,2.1c0.4,0.5,1.1,0.7,2,0.7c0.8,0,1.5-0.1,2.1-0.4v-1.7C133.6,21.3,133.1,21.3,132.7,21.3z"></path>
	<path class="st0" d="M104.5,37.6c-0.3,0-0.5-0.1-0.7-0.2c-0.2-0.2-0.3-0.4-0.3-0.7v-4h2.3V31h-2.3v-1.8h-0.3l-3.1,3.2v0.3h1.1v4   c0,0.9,0.2,1.6,0.6,2.1c0.4,0.5,1.1,0.7,2,0.7c0.8,0,1.5-0.1,2.1-0.4v-1.7C105.4,37.5,104.9,37.6,104.5,37.6z"></path>
</g>
</svg>
