<?xml version="1.0" encoding="UTF-8"?>
<!-- Generator: Adobe Illustrator 24.1.3, SVG Export Plug-In . SVG Version: 6.00 Build 0)  -->
<svg xmlns="http://www.w3.org/2000/svg" xmlns:xlink="http://www.w3.org/1999/xlink" version="1.1" id="Layer_1" x="0px" y="0px" viewBox="0 0 164.4 62.4" style="enable-background:new 0 0 164.4 62.4;" xml:space="preserve">
<style type="text/css">
	.st0{fill:#FFFFFF;}
	.st1{clip-path:url(#SVGID_4_);fill:#FFFFFF;}
	.st2{clip-path:url(#SVGID_8_);fill:#FFFFFF;}
	.st3{clip-path:url(#SVGID_12_);fill:#FFFFFF;}
	.st4{clip-path:url(#SVGID_16_);fill:#FFFFFF;}
	.st5{clip-path:url(#SVGID_20_);fill:#FFFFFF;}
	.st6{clip-path:url(#SVGID_24_);fill:#FFFFFF;}
	.st7{clip-path:url(#SVGID_28_);fill:#FFFFFF;}
	.st8{clip-path:url(#SVGID_32_);fill:#FFFFFF;}
	.st9{clip-path:url(#SVGID_35_);fill:#FFFFFF;}
	.st10{clip-path:url(#SVGID_37_);fill:#FFFFFF;}
	.st11{clip-path:url(#SVGID_39_);fill:#FFFFFF;}
	.st12{clip-path:url(#SVGID_41_);fill:#FFFFFF;}
	.st13{clip-path:url(#SVGID_43_);fill:#FFFFFF;}
	.st14{clip-path:url(#SVGID_45_);fill:#FFFFFF;}
	.st15{clip-path:url(#SVGID_47_);fill:#FFFFFF;}
	.st16{clip-path:url(#SVGID_49_);fill:#FFFFFF;}
	.st17{clip-path:url(#SVGID_51_);fill:#FFFFFF;}
</style>
<g>
	<polygon class="st0" points="29.3,20.6 24.9,34.2 20.5,20.6 13.1,20.6 13.1,40.5 17.7,40.5 17.7,24.8 22.5,40.5 27.3,40.5    32.1,24.8 32.1,40.5 36.7,40.5 36.7,20.6  "></polygon>
	<path class="st0" d="M48.1,35.9l4.7,0.6C52.2,38,51.3,39,50,39.8c-1.3,0.7-3,1.1-4.9,1.1c-3.1,0-5.4-0.8-6.9-2.5   c-1.2-1.3-1.8-3-1.8-5c0-2.4,0.8-4.3,2.3-5.6c1.6-1.4,3.5-2,5.9-2c2.7,0,4.8,0.7,6.3,2.1c1.5,1.4,2.3,3.6,2.2,6.5H41.2   c0,1.1,0.4,2,1.1,2.6c0.7,0.6,1.6,0.9,2.7,0.9c0.7,0,1.4-0.2,1.9-0.5C47.5,37.2,47.9,36.7,48.1,35.9 M48.4,32.1   c0-1.1-0.4-1.9-1.1-2.5c-0.7-0.6-1.5-0.9-2.5-0.9c-1,0-1.9,0.3-2.6,0.9c-0.7,0.6-1,1.4-1,2.5L48.4,32.1L48.4,32.1z"></path>
	<path class="st0" d="M57.6,40.5h-4.7V26.1h4.4v2.1c0.7-1,1.4-1.6,2-1.9c0.6-0.3,1.3-0.5,2-0.5c1.1,0,2.1,0.2,3.1,0.7L63,29.8   c-0.8-0.4-1.5-0.6-2.2-0.6c-0.7,0-1.2,0.1-1.7,0.4c-0.5,0.3-0.8,0.8-1.1,1.6c-0.3,0.8-0.4,2.4-0.4,4.9L57.6,40.5L57.6,40.5z"></path>
	<path class="st0" d="M78.2,30.4L73.7,31c-0.2-0.8-0.5-1.3-1-1.7c-0.5-0.4-1.2-0.6-2.1-0.6c-1.2,0-2.1,0.3-2.8,1   c-0.7,0.7-1,1.8-1,3.3c0,1.7,0.3,2.9,1,3.6c0.7,0.7,1.6,1.1,2.8,1.1c0.9,0,1.6-0.2,2.2-0.6c0.6-0.4,1-1.1,1.2-2.1l4.5,0.6   c-0.5,1.7-1.4,3-2.7,3.9c-1.3,0.9-3.1,1.3-5.4,1.3c-2.6,0-4.6-0.7-6.1-2c-1.5-1.3-2.3-3.2-2.3-5.5c0-2.4,0.8-4.2,2.3-5.6   c1.5-1.3,3.6-2,6.2-2c2.1,0,3.8,0.4,5.1,1.1C76.8,27.6,77.7,28.8,78.2,30.4"></path>
	<path class="st0" d="M89.7,35.9l4.8,0.6c-0.6,1.4-1.6,2.5-2.9,3.2c-1.3,0.7-3,1.1-5,1.1c-3.2,0-5.5-0.8-7-2.5c-1.2-1.3-1.8-3-1.8-5   c0-2.4,0.8-4.3,2.4-5.6c1.6-1.4,3.6-2,6-2c2.7,0,4.8,0.7,6.4,2.1c1.6,1.4,2.3,3.6,2.2,6.5h-12c0,1.1,0.4,2,1.2,2.6   c0.7,0.6,1.7,0.9,2.8,0.9c0.7,0,1.4-0.2,1.9-0.5C89,37.2,89.4,36.7,89.7,35.9 M90,32.1c0-1.1-0.4-1.9-1.1-2.5   c-0.7-0.6-1.5-0.9-2.5-0.9c-1,0-1.9,0.3-2.6,0.9c-0.7,0.6-1,1.4-1,2.5L90,32.1L90,32.1z"></path>
	<path class="st0" d="M99.2,40.5h-4.7V26.1h4.3v2.1c0.7-1,1.4-1.6,2-1.9c0.6-0.3,1.3-0.5,2-0.5c1.1,0,2.1,0.2,3.1,0.7l-1.4,3.3   c-0.8-0.4-1.5-0.6-2.2-0.6c-0.7,0-1.2,0.1-1.7,0.4c-0.5,0.3-0.8,0.8-1.1,1.6c-0.3,0.8-0.4,2.4-0.4,4.9L99.2,40.5L99.2,40.5z"></path>
	<path class="st0" d="M110.4,40.5c6.1-5.9,15.8-5.9,21.8,0.1l-11-11l0,0L110.4,40.5z"></path>
	<path class="st0" d="M121.3,29.6l10.9-10.9l-11-11C127.1,13.9,127.1,23.5,121.3,29.6"></path>
	<path class="st0" d="M143.1,51.4c-5.9-6.1-6-15.7-0.1-21.8l-10.9,10.9L143.1,51.4z"></path>
	<path class="st0" d="M153.9,18.7c-6.1,5.9-15.7,6-21.8,0.1L143,29.6h0L153.9,18.7z"></path>
	<g>
		<g>
			<path id="SVGID_1_" class="st0" d="M76.7,45.2h2.4c1,0,2.7,0.2,2.7,2.9c0,2.5-1.4,2.9-2.6,2.9h-2.5L76.7,45.2L76.7,45.2z      M74.9,43.9v8.4h5c2.9,0,3.7-2.3,3.7-4.1c0-2.4-0.8-4.3-4.1-4.3L74.9,43.9L74.9,43.9z"></path>
		</g>
		<g>
			<defs>
				<path id="SVGID_2_" d="M76.7,45.2h2.4c1,0,2.7,0.2,2.7,2.9c0,2.5-1.4,2.9-2.6,2.9h-2.5L76.7,45.2L76.7,45.2z M74.9,43.9v8.4h5      c2.9,0,3.7-2.3,3.7-4.1c0-2.4-0.8-4.3-4.1-4.3L74.9,43.9L74.9,43.9z"></path>
			</defs>
			<clipPath id="SVGID_4_">
				<use xlink:href="#SVGID_2_" style="overflow:visible;"></use>
			</clipPath>
			<rect x="74.9" y="43.9" class="st1" width="8.7" height="8.4"></rect>
		</g>
	</g>
	<g>
		<g>
			<path id="SVGID_3_" class="st0" d="M84.6,52.3h1.6v-6.3h-1.6V52.3z M84.6,45.1h1.6v-1.3h-1.6V45.1z"></path>
		</g>
		<g>
			<defs>
				<path id="SVGID_6_" d="M84.6,52.3h1.6v-6.3h-1.6V52.3z M84.6,45.1h1.6v-1.3h-1.6V45.1z"></path>
			</defs>
			<clipPath id="SVGID_8_">
				<use xlink:href="#SVGID_6_" style="overflow:visible;"></use>
			</clipPath>
			<rect x="84.6" y="43.7" class="st2" width="1.6" height="8.6"></rect>
		</g>
	</g>
	<g>
		<g>
			<polygon id="SVGID_5_" class="st0" points="92.3,46.1 90.4,50.7 88.5,46.1 86.7,46.1 89.6,52.3 91.3,52.3 94.2,46.1 94.2,46.1         "></polygon>
		</g>
		<g>
			<defs>
				<polygon id="SVGID_10_" points="92.3,46.1 90.4,50.7 88.5,46.1 86.7,46.1 89.6,52.3 91.3,52.3 94.2,46.1 94.2,46.1     "></polygon>
			</defs>
			<clipPath id="SVGID_12_">
				<use xlink:href="#SVGID_10_" style="overflow:visible;"></use>
			</clipPath>
			<rect x="86.7" y="46.1" class="st3" width="7.5" height="6.3"></rect>
		</g>
	</g>
	<g>
		<g>
			<path id="SVGID_7_" class="st0" d="M94.6,52.3h1.6v-6.3h-1.6V52.3z M94.6,45.1h1.6v-1.3h-1.6V45.1z"></path>
		</g>
		<g>
			<defs>
				<path id="SVGID_14_" d="M94.6,52.3h1.6v-6.3h-1.6V52.3z M94.6,45.1h1.6v-1.3h-1.6V45.1z"></path>
			</defs>
			<clipPath id="SVGID_16_">
				<use xlink:href="#SVGID_14_" style="overflow:visible;"></use>
			</clipPath>
			<rect x="94.6" y="43.7" class="st4" width="1.6" height="8.6"></rect>
		</g>
	</g>
	<g>
		<g>
			<path id="SVGID_9_" class="st0" d="M97.3,47.8c0,1.4,1,1.7,3,1.9c1.8,0.2,2,0.4,2,0.9c0,0.6-0.9,0.8-1.7,0.8     c-0.6,0-1.7-0.1-1.7-1.1h-1.8c0.1,1.9,2.2,2.2,3.5,2.2c1.9,0,3.4-0.5,3.5-2.1v-0.1c0-1.4-1.4-1.6-3.4-1.9     c-1.6-0.2-1.7-0.3-1.7-0.8c0-0.3,0.5-0.7,1.4-0.7c0.6,0,1.6,0.1,1.8,1h1.7c-0.1-2-2.4-2.2-3.4-2.2C99.4,45.8,97.3,46.1,97.3,47.8     "></path>
		</g>
		<g>
			<defs>
				<path id="SVGID_18_" d="M97.3,47.8c0,1.4,1,1.7,3,1.9c1.8,0.2,2,0.4,2,0.9c0,0.6-0.9,0.8-1.7,0.8c-0.6,0-1.7-0.1-1.7-1.1h-1.8      c0.1,1.9,2.2,2.2,3.5,2.2c1.9,0,3.4-0.5,3.5-2.1v-0.1c0-1.4-1.4-1.6-3.4-1.9c-1.6-0.2-1.7-0.3-1.7-0.8c0-0.3,0.5-0.7,1.4-0.7      c0.6,0,1.6,0.1,1.8,1h1.7c-0.1-2-2.4-2.2-3.4-2.2C99.4,45.8,97.3,46.1,97.3,47.8"></path>
			</defs>
			<clipPath id="SVGID_20_">
				<use xlink:href="#SVGID_18_" style="overflow:visible;"></use>
			</clipPath>
			<rect x="97.1" y="45.8" class="st5" width="7" height="6.7"></rect>
		</g>
	</g>
	<g>
		<g>
			<path id="SVGID_11_" class="st0" d="M104.9,52.3h1.6v-6.3h-1.6V52.3z M104.9,45.1h1.6v-1.3h-1.6V45.1z"></path>
		</g>
		<g>
			<defs>
				<path id="SVGID_22_" d="M104.9,52.3h1.6v-6.3h-1.6V52.3z M104.9,45.1h1.6v-1.3h-1.6V45.1z"></path>
			</defs>
			<clipPath id="SVGID_24_">
				<use xlink:href="#SVGID_22_" style="overflow:visible;"></use>
			</clipPath>
			<rect x="104.9" y="43.7" class="st6" width="1.6" height="8.6"></rect>
		</g>
	</g>
	<g>
		<g>
			<path id="SVGID_13_" class="st0" d="M109.1,49.2c0-1.1,0.6-2.1,2.2-2.1s2.2,1,2.2,2.1c0,1.1-0.6,2.1-2.2,2.1     C109.7,51.3,109.1,50.3,109.1,49.2 M107.4,49.2c0,1.7,1.1,3.4,3.9,3.4c2.8,0,3.9-1.6,3.9-3.4c0-1.7-1.1-3.4-3.9-3.4     C108.4,45.8,107.4,47.5,107.4,49.2"></path>
		</g>
		<g>
			<defs>
				<path id="SVGID_26_" d="M109.1,49.2c0-1.1,0.6-2.1,2.2-2.1s2.2,1,2.2,2.1c0,1.1-0.6,2.1-2.2,2.1      C109.7,51.3,109.1,50.3,109.1,49.2 M107.4,49.2c0,1.7,1.1,3.4,3.9,3.4c2.8,0,3.9-1.6,3.9-3.4c0-1.7-1.1-3.4-3.9-3.4      C108.4,45.8,107.4,47.5,107.4,49.2"></path>
			</defs>
			<clipPath id="SVGID_28_">
				<use xlink:href="#SVGID_26_" style="overflow:visible;"></use>
			</clipPath>
			<rect x="107.4" y="45.8" class="st7" width="7.8" height="6.7"></rect>
		</g>
	</g>
	<g>
		<g>
			<path id="SVGID_15_" class="st0" d="M117.6,47L117.6,47l0-0.9h-1.6v6.3h1.6V49c0-1.3,1.1-1.8,2-1.8c1.3,0,1.6,0.8,1.6,1.4v3.7     h1.6v-4.3c0-1.7-1.3-2.2-2.7-2.2C119,45.9,118.1,46.3,117.6,47"></path>
		</g>
		<g>
			<defs>
				<path id="SVGID_30_" d="M117.6,47L117.6,47l0-0.9h-1.6v6.3h1.6V49c0-1.3,1.1-1.8,2-1.8c1.3,0,1.6,0.8,1.6,1.4v3.7h1.6v-4.3      c0-1.7-1.3-2.2-2.7-2.2C119,45.9,118.1,46.3,117.6,47"></path>
			</defs>
			<clipPath id="SVGID_32_">
				<use xlink:href="#SVGID_30_" style="overflow:visible;"></use>
			</clipPath>
			<rect x="115.9" y="45.9" class="st8" width="6.8" height="6.4"></rect>
		</g>
	</g>
	<g>
		<g>
			<path id="SVGID_17_" class="st0" d="M13.1,46.3c0,3.4,6.2,1.6,6.2,3.7c0,0.9-1,1.2-2.1,1.2c-1.4,0-2.4-0.5-2.4-1.6h-1.9v0     c0,1.7,1.3,2.9,4.3,2.9c1.8,0,4-0.6,4-2.7c0-3.6-6.2-1.7-6.2-3.7c0-0.8,0.8-1.2,1.9-1.2c1.5,0,2.1,0.7,2.1,1.4h1.9     c-0.2-2.4-2.8-2.7-4.1-2.7C14.8,43.7,13.1,44.4,13.1,46.3"></path>
		</g>
		<g>
			<defs>
				<path id="SVGID_34_" d="M13.1,46.3c0,3.4,6.2,1.6,6.2,3.7c0,0.9-1,1.2-2.1,1.2c-1.4,0-2.4-0.5-2.4-1.6h-1.9v0      c0,1.7,1.3,2.9,4.3,2.9c1.8,0,4-0.6,4-2.7c0-3.6-6.2-1.7-6.2-3.7c0-0.8,0.8-1.2,1.9-1.2c1.5,0,2.1,0.7,2.1,1.4h1.9      c-0.2-2.4-2.8-2.7-4.1-2.7C14.8,43.7,13.1,44.4,13.1,46.3"></path>
			</defs>
			<clipPath id="SVGID_35_">
				<use xlink:href="#SVGID_34_" style="overflow:visible;"></use>
			</clipPath>
			<rect x="12.9" y="43.7" class="st9" width="8.3" height="8.9"></rect>
		</g>
	</g>
	<g>
		<g>
			<path id="SVGID_19_" class="st0" d="M22.3,44.2v1.9H21v1.2h1.3v3.3c0,1.2,0.2,1.9,2.1,1.9c0.5,0,0.8,0,1.2-0.1v-1.2     c-0.4,0-0.8,0-1.2,0c-0.6,0-0.6-0.4-0.6-1.1v-2.8h1.7v-1.2h-1.7v-1.9H22.3z"></path>
		</g>
		<g>
			<defs>
				<path id="SVGID_36_" d="M22.3,44.2v1.9H21v1.2h1.3v3.3c0,1.2,0.2,1.9,2.1,1.9c0.5,0,0.8,0,1.2-0.1v-1.2c-0.4,0-0.8,0-1.2,0      c-0.6,0-0.6-0.4-0.6-1.1v-2.8h1.7v-1.2h-1.7v-1.9H22.3z"></path>
			</defs>
			<clipPath id="SVGID_37_">
				<use xlink:href="#SVGID_36_" style="overflow:visible;"></use>
			</clipPath>
			<rect x="21" y="44.2" class="st10" width="4.7" height="8.3"></rect>
		</g>
	</g>
	<g>
		<g>
			<path id="SVGID_21_" class="st0" d="M27.8,50.6c0-0.5,0.3-0.8,1.5-0.9c1.2-0.1,1.7-0.2,2.1-0.4v0.6c0,1.4-1.5,1.7-2.3,1.7     C28.5,51.5,27.8,51.4,27.8,50.6 M26.4,48H28c0.1-0.7,0.6-1,1.7-1c0.9,0,1.8,0.2,1.8,0.9c0,0.5-0.2,0.6-2.6,0.8     c-1,0.1-2.8,0.2-2.8,2c0,1.2,0.9,1.9,2.5,1.9c1.8,0,2.6-0.6,2.9-0.9c0,0.2,0.2,0.8,1.2,0.8c0.6,0,0.8-0.1,1.2-0.1v-1.1     c-0.1,0-0.4,0-0.5,0c-0.1,0-0.4,0-0.4-0.4V48c0-0.8-0.1-2.1-3.3-2.1C27.9,45.9,26.6,46.4,26.4,48"></path>
		</g>
		<g>
			<defs>
				<path id="SVGID_38_" d="M27.8,50.6c0-0.5,0.3-0.8,1.5-0.9c1.2-0.1,1.7-0.2,2.1-0.4v0.6c0,1.4-1.5,1.7-2.3,1.7      C28.5,51.5,27.8,51.4,27.8,50.6 M26.4,48H28c0.1-0.7,0.6-1,1.7-1c0.9,0,1.8,0.2,1.8,0.9c0,0.5-0.2,0.6-2.6,0.8      c-1,0.1-2.8,0.2-2.8,2c0,1.2,0.9,1.9,2.5,1.9c1.8,0,2.6-0.6,2.9-0.9c0,0.2,0.2,0.8,1.2,0.8c0.6,0,0.8-0.1,1.2-0.1v-1.1      c-0.1,0-0.4,0-0.5,0c-0.1,0-0.4,0-0.4-0.4V48c0-0.8-0.1-2.1-3.3-2.1C27.9,45.9,26.6,46.4,26.4,48"></path>
			</defs>
			<clipPath id="SVGID_39_">
				<use xlink:href="#SVGID_38_" style="overflow:visible;"></use>
			</clipPath>
			<rect x="26.1" y="45.9" class="st11" width="7.8" height="6.7"></rect>
		</g>
	</g>
	<g>
		<g>
			<path id="SVGID_23_" class="st0" d="M34.4,52.3h1.6v-6.2h-1.6V52.3z M34.4,45.1h1.6v-1.3h-1.6V45.1z"></path>
		</g>
		<g>
			<defs>
				<path id="SVGID_40_" d="M34.4,52.3h1.6v-6.2h-1.6V52.3z M34.4,45.1h1.6v-1.3h-1.6V45.1z"></path>
			</defs>
			<clipPath id="SVGID_41_">
				<use xlink:href="#SVGID_40_" style="overflow:visible;"></use>
			</clipPath>
			<rect x="34.4" y="43.8" class="st12" width="1.6" height="8.5"></rect>
		</g>
	</g>
	<g>
		<g>
			<path id="SVGID_25_" class="st0" d="M38.8,47L38.8,47l0-0.9h-1.6v6.2h1.6V49c0-1.3,1.1-1.8,1.9-1.8c1.3,0,1.6,0.8,1.6,1.4v3.7     h1.6v-4.2c0-1.7-1.3-2.2-2.6-2.2C40.2,45.9,39.4,46.4,38.8,47"></path>
		</g>
		<g>
			<defs>
				<path id="SVGID_42_" d="M38.8,47L38.8,47l0-0.9h-1.6v6.2h1.6V49c0-1.3,1.1-1.8,1.9-1.8c1.3,0,1.6,0.8,1.6,1.4v3.7h1.6v-4.2      c0-1.7-1.3-2.2-2.6-2.2C40.2,45.9,39.4,46.4,38.8,47"></path>
			</defs>
			<clipPath id="SVGID_43_">
				<use xlink:href="#SVGID_42_" style="overflow:visible;"></use>
			</clipPath>
			<rect x="37.2" y="45.9" class="st13" width="6.7" height="6.4"></rect>
		</g>
	</g>
	<g>
		<g>
			<rect id="SVGID_27_" x="45.1" y="43.8" class="st0" width="1.6" height="8.5"></rect>
		</g>
		<g>
			<defs>
				<rect id="SVGID_44_" x="45.1" y="43.8" width="1.6" height="8.5"></rect>
			</defs>
			<clipPath id="SVGID_45_">
				<use xlink:href="#SVGID_44_" style="overflow:visible;"></use>
			</clipPath>
			<rect x="45.1" y="43.8" class="st14" width="1.6" height="8.5"></rect>
		</g>
	</g>
	<g>
		<g>
			<path id="SVGID_29_" class="st0" d="M51.4,47c0.8,0,1.9,0.4,2.1,1.6h-4.2C49.6,47.3,50.6,47,51.4,47 M47.6,49.3     c0,1.7,1,3.3,3.9,3.3c2.4,0,3.2-1.4,3.6-2.1h-1.8c-0.3,0.5-0.8,0.9-1.9,0.9c-1.6,0-2.1-1.1-2.1-1.8h5.9v-0.3     c0-1.8-1.1-3.4-3.8-3.4C49.1,45.9,47.6,47.2,47.6,49.3"></path>
		</g>
		<g>
			<defs>
				<path id="SVGID_46_" d="M51.4,47c0.8,0,1.9,0.4,2.1,1.6h-4.2C49.6,47.3,50.6,47,51.4,47 M47.6,49.3c0,1.7,1,3.3,3.9,3.3      c2.4,0,3.2-1.4,3.6-2.1h-1.8c-0.3,0.5-0.8,0.9-1.9,0.9c-1.6,0-2.1-1.1-2.1-1.8h5.9v-0.3c0-1.8-1.1-3.4-3.8-3.4      C49.1,45.9,47.6,47.2,47.6,49.3"></path>
			</defs>
			<clipPath id="SVGID_47_">
				<use xlink:href="#SVGID_46_" style="overflow:visible;"></use>
			</clipPath>
			<rect x="47.6" y="45.9" class="st15" width="7.6" height="6.7"></rect>
		</g>
	</g>
	<g>
		<g>
			<path id="SVGID_31_" class="st0" d="M55.9,47.9c0,1.4,1,1.6,2.9,1.9c1.8,0.2,2,0.4,2,0.9c0,0.6-0.9,0.8-1.7,0.8     c-0.6,0-1.7-0.1-1.7-1.1h-1.8c0.1,1.9,2.2,2.2,3.5,2.2c1.9,0,3.4-0.5,3.4-2.1v-0.1c0-1.4-1.4-1.6-3.4-1.9     c-1.6-0.2-1.7-0.3-1.7-0.8c0-0.3,0.5-0.7,1.4-0.7c0.5,0,1.6,0.1,1.8,1h1.7c-0.1-2-2.4-2.1-3.4-2.1C58,45.9,55.9,46.1,55.9,47.9"></path>
		</g>
		<g>
			<defs>
				<path id="SVGID_48_" d="M55.9,47.9c0,1.4,1,1.6,2.9,1.9c1.8,0.2,2,0.4,2,0.9c0,0.6-0.9,0.8-1.7,0.8c-0.6,0-1.7-0.1-1.7-1.1h-1.8      c0.1,1.9,2.2,2.2,3.5,2.2c1.9,0,3.4-0.5,3.4-2.1v-0.1c0-1.4-1.4-1.6-3.4-1.9c-1.6-0.2-1.7-0.3-1.7-0.8c0-0.3,0.5-0.7,1.4-0.7      c0.5,0,1.6,0.1,1.8,1h1.7c-0.1-2-2.4-2.1-3.4-2.1C58,45.9,55.9,46.1,55.9,47.9"></path>
			</defs>
			<clipPath id="SVGID_49_">
				<use xlink:href="#SVGID_48_" style="overflow:visible;"></use>
			</clipPath>
			<rect x="55.7" y="45.9" class="st16" width="6.9" height="6.7"></rect>
		</g>
	</g>
	<g>
		<g>
			<path id="SVGID_33_" class="st0" d="M63.3,47.9c0,1.4,1,1.6,2.9,1.9c1.7,0.2,2,0.4,2,0.9c0,0.6-0.9,0.8-1.7,0.8     c-0.6,0-1.7-0.1-1.7-1.1h-1.8c0.1,1.9,2.2,2.2,3.5,2.2c1.9,0,3.4-0.5,3.4-2.1c0-1.4-1.3-1.6-3.4-1.9c-1.6-0.2-1.7-0.3-1.7-0.8     c0-0.3,0.5-0.7,1.4-0.7c0.6,0,1.6,0.1,1.8,1h1.7c-0.1-2-2.4-2.1-3.4-2.1C65.4,45.9,63.3,46.1,63.3,47.9"></path>
		</g>
		<g>
			<defs>
				<path id="SVGID_50_" d="M63.3,47.9c0,1.4,1,1.6,2.9,1.9c1.7,0.2,2,0.4,2,0.9c0,0.6-0.9,0.8-1.7,0.8c-0.6,0-1.7-0.1-1.7-1.1h-1.8      c0.1,1.9,2.2,2.2,3.5,2.2c1.9,0,3.4-0.5,3.4-2.1c0-1.4-1.3-1.6-3.4-1.9c-1.6-0.2-1.7-0.3-1.7-0.8c0-0.3,0.5-0.7,1.4-0.7      c0.6,0,1.6,0.1,1.8,1h1.7c-0.1-2-2.4-2.1-3.4-2.1C65.4,45.9,63.3,46.1,63.3,47.9"></path>
			</defs>
			<clipPath id="SVGID_51_">
				<use xlink:href="#SVGID_50_" style="overflow:visible;"></use>
			</clipPath>
			<rect x="63.1" y="45.9" class="st17" width="6.9" height="6.7"></rect>
		</g>
	</g>
</g>
</svg>
